…
```r
print("In this section of the survey you will be asked to consider a variety of possible benefits you may have gained from your research experience. If for any reason you prefer not to answer, or consider the question irrelevant to you, please choose the Not applicable / Prefer not to answer option - ")
```

```
## [1] "In this section of the survey you will be asked to consider a variety of possible benefits you may have gained from your research experience. If for any reason you prefer not to answer, or consider the question irrelevant to you, please choose the Not applicable / Prefer not to answer option - "
```

```r
print(Q10TextClean)
```

```
## # A tibble: 21 × 2
##    value       Question                                                         
##    <chr>       <chr>                                                            
##  1 Q10_1_post  Clarification of a career path                                   
##  2 Q10_2_post  Skill in the interpretation of results                           
##  3 Q10_3_post  Tolerance for obstacles faced in the research process            
##  4 Q10_4_post  Readiness for more demanding research                            
##  5 Q10_5_post  Understanding how knowledge is constructed                       
##  6 Q10_6_post  Understanding of the research process in your field              
##  7 Q10_7_post  Ability to integrate theory and practice                         
##  8 Q10_8_post  Understanding of how scientists work on real problems            
##  9 Q10_9_post  Understanding that scientific assertions require supporting evid…
## 10 Q10_10_post Ability to analyze data and other information                    
## # ℹ 11 more rows
```
…
