…
```
## # A tibble: 64 × 3
##    column    PC   value
##    <chr>  <dbl>   <dbl>
##  1 Q11_1      1  0.523 
##  2 Q11_1      2 -0.439 
##  3 Q11_1      3 -0.0805
##  4 Q11_1      4 -0.0374
##  5 Q11_1      5  0.215 
##  6 Q11_1      6  0.307 
##  7 Q11_1      7  0.618 
##  8 Q11_1      8 -0.0635
##  9 Q11_2      1  0.380 
## 10 Q11_2      2 -0.158 
## # ℹ 54 more rows
```
…
